[gd_scene load_steps=4 format=3 uid="uid://iv2360w7nqab"]

[ext_resource type="Script" path="res://Scenes/Game_Over.gd" id="1_2e6sk"]
[ext_resource type="Texture2D" uid="uid://c57fej47adq38" path="res://assets/restart.png" id="1_4oxxc"]

[sub_resource type="StyleBoxTexture" id="StyleBoxTexture_ht3fu"]
texture = ExtResource("1_4oxxc")
modulate_color = Color(0.207843, 0.207843, 0.207843, 1)

[node name="Game_Over" type="CanvasLayer"]
script = ExtResource("1_2e6sk")

[node name="VBoxContainer" type="VBoxContainer" parent="."]
offset_left = 3.0
offset_top = 4.0
offset_right = 864.0
offset_bottom = 940.0
pivot_offset = Vector2(20, 0)
theme_override_constants/separation = 50
alignment = 1

[node name="Restart Button" type="Button" parent="VBoxContainer"]
layout_mode = 2
theme_override_styles/pressed = SubResource("StyleBoxTexture_ht3fu")
text = "RESET"

[node name="SALIR AL MENU" type="Button" parent="VBoxContainer"]
layout_mode = 2
theme_override_styles/pressed = SubResource("StyleBoxTexture_ht3fu")
text = "SALIR AL MENU"

[connection signal="pressed" from="VBoxContainer/Restart Button" to="." method="_on_restart_button_pressed"]
[connection signal="pressed" from="VBoxContainer/SALIR AL MENU" to="." method="_on_salir_al_menu_pressed"]
