[gd_scene load_steps=2 format=3 uid="uid://o2xbws2mtbwy"]

[ext_resource type="Script" path="res://Scenes/main_menu.gd" id="1_kkiou"]

[node name="Main_Menu" type="CanvasLayer"]
script = ExtResource("1_kkiou")

[node name="VBoxContainer" type="VBoxContainer" parent="."]
offset_right = 864.0
offset_bottom = 939.0
theme_override_constants/separation = 50
alignment = 1

[node name="START GAME" type="Button" parent="VBoxContainer"]
layout_mode = 2
text = "START GAME"

[node name="CONFIGURATION" type="Button" parent="VBoxContainer"]
layout_mode = 2
text = "CONFIGURATION"

[node name="EXITGAME" type="Button" parent="VBoxContainer"]
layout_mode = 2
text = "EXIT GAME
"

[connection signal="pressed" from="VBoxContainer/START GAME" to="." method="_on_start_game_pressed"]
[connection signal="pressed" from="VBoxContainer/CONFIGURATION" to="." method="_on_configuration_pressed"]
[connection signal="pressed" from="VBoxContainer/EXITGAME" to="." method="_on_exitgame_pressed"]
